…
```r
movieratings <- movies %>%
  select(FILM, Fandango_Ratingvalue, RT_norm, Metacritic_norm, IMDB_norm) %>%
  pivot_longer(2:5, names_to = "source", values_to = "score") %>%
  select(FILM, source, score) %>%
  head(n = 40)

movieratings
```

```
## # A tibble: 40 × 3
##    FILM                           source               score
##    <chr>                          <chr>                <dbl>
##  1 Avengers: Age of Ultron (2015) Fandango_Ratingvalue  4.5 
##  2 Avengers: Age of Ultron (2015) RT_norm               3.7 
##  3 Avengers: Age of Ultron (2015) Metacritic_norm       3.3 
##  4 Avengers: Age of Ultron (2015) IMDB_norm             3.9 
##  5 Cinderella (2015)              Fandango_Ratingvalue  4.5 
##  6 Cinderella (2015)              RT_norm               4.25
##  7 Cinderella (2015)              Metacritic_norm       3.35
##  8 Cinderella (2015)              IMDB_norm             3.55
##  9 Ant-Man (2015)                 Fandango_Ratingvalue  4.5 
## 10 Ant-Man (2015)                 RT_norm               4   
## # … with 30 more rows
```
…
