…
```
## `summarise()` has grouped output by 'year'. You can override using the
## `.groups` argument.
```

```r
avgscore
```

```
## # A tibble: 97 × 4
## # Groups:   year [2]
##     year  week averagescore date      
##    <dbl> <dbl>        <dbl> <date>    
##  1  2005     1         396. 2005-01-07
##  2  2005     2         370. 2005-01-14
##  3  2005     3         403. 2005-01-16
##  4  2005     4         388. 2005-01-28
##  5  2005     5         376. 2005-01-29
##  6  2005     6         386. 2005-02-11
##  7  2005     7         372. 2005-02-18
##  8  2005     8         387. 2005-02-19
##  9  2005     9         383. 2005-02-26
## 10  2005    10         392. 2005-03-06
## # … with 87 more rows
```


```r
earlyaverage <- avgscore %>%
  filter(year == "2005")

earlyaverage
```

```
## # A tibble: 46 × 4
## # Groups:   year [1]
##     year  week averagescore date      
##    <dbl> <dbl>        <dbl> <date>    
##  1  2005     1         396. 2005-01-07
##  2  2005     2         370. 2005-01-14
##  3  2005     3         403. 2005-01-16
##  4  2005     4         388. 2005-01-28
##  5  2005     5         376. 2005-01-29
##  6  2005     6         386. 2005-02-11
##  7  2005     7         372. 2005-02-18
##  8  2005     8         387. 2005-02-19
##  9  2005     9         383. 2005-02-26
## 10  2005    10         392. 2005-03-06
## # … with 36 more rows
```


```r
lateaverage <- avgscore %>%
  filter(year == "2006") 
  
lateaverage
```

```
## # A tibble: 51 × 4
## # Groups:   year [1]
##     year  week averagescore date      
##    <dbl> <dbl>        <dbl> <date>    
##  1  2006     1         369. 2006-01-07
##  2  2006     2         371. 2006-01-14
##  3  2006     3         381. 2006-01-21
##  4  2006     4         360. 2006-01-28
##  5  2006     5         361. 2006-01-29
##  6  2006     6         375. 2006-02-11
##  7  2006     7         379. 2006-02-18
##  8  2006     8         359. 2006-02-25
##  9  2006     9         375. 2006-03-04
## 10  2006    10         385. 2006-03-11
## # … with 41 more rows
```
…
