…
```
## ── Conflicts ────────────────────────────────────────── tidyverse_conflicts() ──
## ✖ dplyr::filter() masks stats::filter()
## ✖ dplyr::lag()    masks stats::lag()
```

#Convert the iris data to a tibble called iris_data.

```r
iris_data <- as_tibble(iris)
iris_data
```

```
## # A tibble: 150 × 5
##    Sepal.Length Sepal.Width Petal.Length Petal.Width Species
##           <dbl>       <dbl>        <dbl>       <dbl> <fct>  
##  1          5.1         3.5          1.4         0.2 setosa 
##  2          4.9         3            1.4         0.2 setosa 
##  3          4.7         3.2          1.3         0.2 setosa 
##  4          4.6         3.1          1.5         0.2 setosa 
##  5          5           3.6          1.4         0.2 setosa 
##  6          5.4         3.9          1.7         0.4 setosa 
##  7          4.6         3.4          1.4         0.3 setosa 
##  8          5           3.4          1.5         0.2 setosa 
##  9          4.4         2.9          1.4         0.2 setosa 
## 10          4.9         3.1          1.5         0.1 setosa 
## # … with 140 more rows
```
…
#Select the Species and Petal.Width columns and put them into a new data set called testdat.

```r
testdat <- select(iris_data, Species, Petal.Width)
testdat
```

```
## # A tibble: 150 × 2
##    Species Petal.Width
##    <fct>         <dbl>
##  1 setosa          0.2
##  2 setosa          0.2
##  3 setosa          0.2
##  4 setosa          0.2
##  5 setosa          0.2
##  6 setosa          0.4
##  7 setosa          0.3
##  8 setosa          0.2
##  9 setosa          0.2
## 10 setosa          0.1
## # … with 140 more rows
```
…
#Create a data frame called iris_min with only the observations with at least 3 for Sepal.Width and not 2.5 for Petal.Width.

```r
select_iris <- select(iris_data, Species, Sepal.Width, Petal.Width, Sepal.Length, Petal.Length) 
iris_min <-filter(select_iris, Sepal.Width >= 3, Petal.Width != 2.5)

iris_min
```

```
## # A tibble: 90 × 5
##    Species Sepal.Width Petal.Width Sepal.Length Petal.Length
##    <fct>         <dbl>       <dbl>        <dbl>        <dbl>
##  1 setosa          3.5         0.2          5.1          1.4
##  2 setosa          3           0.2          4.9          1.4
##  3 setosa          3.2         0.2          4.7          1.3
##  4 setosa          3.1         0.2          4.6          1.5
##  5 setosa          3.6         0.2          5            1.4
##  6 setosa          3.9         0.4          5.4          1.7
##  7 setosa          3.4         0.3          4.6          1.4
##  8 setosa          3.4         0.2          5            1.5
##  9 setosa          3.1         0.1          4.9          1.5
## 10 setosa          3.7         0.2          5.4          1.5
## # … with 80 more rows
```

#Create a data frame called iris_size with a column Sepal.Size which is

```r
iris_size <- iris_data %>%
  mutate(Sepal.Size =
           case_when(
             Sepal.Length < 5 ~ "small",
             Sepal.Length >= 5 & Sepal.Length < 6.5 ~ "medium",
             Sepal.Length >= 6.5 ~ "large"))
iris_size
```

```
## # A tibble: 150 × 6
##    Sepal.Length Sepal.Width Petal.Length Petal.Width Species Sepal.Size
##           <dbl>       <dbl>        <dbl>       <dbl> <fct>   <chr>     
##  1          5.1         3.5          1.4         0.2 setosa  medium    
##  2          4.9         3            1.4         0.2 setosa  small     
##  3          4.7         3.2          1.3         0.2 setosa  small     
##  4          4.6         3.1          1.5         0.2 setosa  small     
##  5          5           3.6          1.4         0.2 setosa  medium    
##  6          5.4         3.9          1.7         0.4 setosa  medium    
##  7          4.6         3.4          1.4         0.3 setosa  small     
##  8          5           3.4          1.5         0.2 setosa  medium    
##  9          4.4         2.9          1.4         0.2 setosa  small     
## 10          4.9         3.1          1.5         0.1 setosa  small     
## # … with 140 more rows
```

#Create a data frame called iris_rank which ranks all of the data by Petal.Length, where a ranking of 1 is the largest Petal.Length and order by ranking.

```r
iris_ranking <- arrange(iris_data, desc(Petal.Length)) 
iris_rank <- mutate(iris_ranking, rank=min_rank(Petal.Length))


iris_rank
```

```
## # A tibble: 150 × 6
##    Sepal.Length Sepal.Width Petal.Length Petal.Width Species    rank
##           <dbl>       <dbl>        <dbl>       <dbl> <fct>     <int>
##  1          7.7         2.6          6.9         2.3 virginica   150
##  2          7.7         3.8          6.7         2.2 virginica   148
##  3          7.7         2.8          6.7         2   virginica   148
##  4          7.6         3            6.6         2.1 virginica   147
##  5          7.9         3.8          6.4         2   virginica   146
##  6          7.3         2.9          6.3         1.8 virginica   145
##  7          7.2         3.6          6.1         2.5 virginica   142
##  8          7.4         2.8          6.1         1.9 virginica   142
##  9          7.7         3            6.1         2.3 virginica   142
## 10          6.3         3.3          6           2.5 virginica   140
## # … with 140 more rows
```
…
