…
```r
avocadocities
```

```
## # A tibble: 312 × 14
##     ...1 Date       Avera…¹ Total…² `4046` `4225` `4770` Total…³ Small…⁴ Large…⁵
##    <dbl> <date>       <dbl>   <dbl>  <dbl>  <dbl>  <dbl>   <dbl>   <dbl>   <dbl>
##  1     0 2015-12-27    1.33  64237. 1.04e3 5.45e4 4.82e1   8697.   8604.    93.2
##  2    32 2015-05-17    1.43 109857. 1.15e3 8.20e4 9.43e1  26657.  26285.   372. 
##  3    22 2015-07-26    1.08 437378. 3.35e5 4.41e4 7.08e2  57211.  45114. 12096. 
##  4    28 2015-06-14    0.99  87608. 5.88e4 1.79e4 3.14e3   7800.   7800.     0  
##  5    17 2015-08-30    1.13 526665. 4.18e3 4.39e5 5.54e2  83431.  83242.   189. 
##  6    49 2015-01-18    1.23 401331. 4.38e3 2.88e5 1.33e2 109037. 108669.   368. 
##  7    13 2015-09-27    1.09 168780. 2.44e4 5.42e4 5.86e4  31621.  27053.  4567. 
##  8    45 2015-02-15    1.22 156799. 2.82e4 3.86e4 4.04e4  49548.  40420.  9128. 
##  9     2 2015-12-13    1.07 668602. 4.04e4 4.51e5 9.42e4  82588.  76829.  5694. 
## 10    34 2015-05-03    1.04 978376. 6.48e4 6.90e5 1.30e5  93716.  89297.  4415. 
## # … with 302 more rows, 4 more variables: `XLarge Bags` <dbl>, type <chr>,
## #   year <dbl>, region <chr>, and abbreviated variable names ¹​AveragePrice,
## #   ²​`Total Volume`, ³​`Total Bags`, ⁴​`Small Bags`, ⁵​`Large Bags`
```
…
