…
Stocks that my friend chose: AAPL, GOOG, and AMZN 

Stocks that I chose: MSFT, TSLA, JNJ 


```r
(Apple <- tq_get("AAPL", get = "stock.prices"))
```

```
## # A tibble: 2,726 × 8
##    symbol date        open  high   low close    volume adjusted
##    <chr>  <date>     <dbl> <dbl> <dbl> <dbl>     <dbl>    <dbl>
##  1 AAPL   2012-01-03  14.6  14.7  14.6  14.7 302220800     12.5
##  2 AAPL   2012-01-04  14.6  14.8  14.6  14.8 260022000     12.6
##  3 AAPL   2012-01-05  14.8  14.9  14.7  14.9 271269600     12.7
##  4 AAPL   2012-01-06  15.0  15.1  15.0  15.1 318292800     12.9
##  5 AAPL   2012-01-09  15.2  15.3  15.0  15.1 394024400     12.9
##  6 AAPL   2012-01-10  15.2  15.2  15.1  15.1 258196400     12.9
##  7 AAPL   2012-01-11  15.1  15.1  15.0  15.1 215084800     12.9
##  8 AAPL   2012-01-12  15.1  15.1  15.0  15.0 212587200     12.8
##  9 AAPL   2012-01-13  15.0  15.0  15.0  15.0 226021600     12.8
## 10 AAPL   2012-01-17  15.2  15.2  15.1  15.2 242897200     13.0
## # … with 2,716 more rows
```

```r
(Google <- tq_get("GOOG", get = "stock.prices"))
```

```
## # A tibble: 2,726 × 8
##    symbol date        open  high   low close    volume adjusted
##    <chr>  <date>     <dbl> <dbl> <dbl> <dbl>     <dbl>    <dbl>
##  1 GOOG   2012-01-03  16.3  16.6  16.2  16.6 147611217     16.6
##  2 GOOG   2012-01-04  16.6  16.7  16.5  16.6 114989399     16.6
##  3 GOOG   2012-01-05  16.5  16.5  16.3  16.4 131808205     16.4
##  4 GOOG   2012-01-06  16.4  16.4  16.2  16.2 108119746     16.2
##  5 GOOG   2012-01-09  16.1  16.1  15.5  15.5 233776981     15.5
##  6 GOOG   2012-01-10  15.7  15.8  15.4  15.5 176483032     15.5
##  7 GOOG   2012-01-11  15.5  15.7  15.5  15.6  96359832     15.6
##  8 GOOG   2012-01-12  15.7  15.8  15.6  15.7  75289148     15.7
##  9 GOOG   2012-01-13  15.6  15.6  15.5  15.6  92637933     15.6
## 10 GOOG   2012-01-17  15.7  15.7  15.6  15.7  76658261     15.7
## # … with 2,716 more rows
```

```r
(Amazon <- tq_get("AMZN", get = "stock.prices"))
```

```
## # A tibble: 2,726 × 8
##    symbol date        open  high   low close    volume adjusted
##    <chr>  <date>     <dbl> <dbl> <dbl> <dbl>     <dbl>    <dbl>
##  1 AMZN   2012-01-03  8.79  8.97  8.78  8.95 102216000     8.95
##  2 AMZN   2012-01-04  8.96  9.02  8.80  8.88  84104000     8.88
##  3 AMZN   2012-01-05  8.80  8.91  8.70  8.88  76182000     8.88
##  4 AMZN   2012-01-06  8.90  9.23  8.88  9.13 140168000     9.13
##  5 AMZN   2012-01-09  9.14  9.22  8.85  8.93 101138000     8.93
##  6 AMZN   2012-01-10  9.06  9.12  8.86  8.97  79716000     8.97
##  7 AMZN   2012-01-11  8.98  9.04  8.91  8.94  62054000     8.94
##  8 AMZN   2012-01-12  8.97  8.97  8.79  8.80 107716000     8.80
##  9 AMZN   2012-01-13  8.79  8.94  8.68  8.92  95070000     8.92
## 10 AMZN   2012-01-17  9.01  9.16  8.93  9.08 112890000     9.08
## # … with 2,716 more rows
```

```r
(Microsoft <- tq_get("MSFT", get = "stock.prices"))
```

```
## # A tibble: 2,726 × 8
##    symbol date        open  high   low close   volume adjusted
##    <chr>  <date>     <dbl> <dbl> <dbl> <dbl>    <dbl>    <dbl>
##  1 MSFT   2012-01-03  26.5  27.0  26.4  26.8 64731500     21.5
##  2 MSFT   2012-01-04  26.8  27.5  26.8  27.4 80516100     22.0
##  3 MSFT   2012-01-05  27.4  27.7  27.3  27.7 56081400     22.3
##  4 MSFT   2012-01-06  27.5  28.2  27.5  28.1 99455500     22.6
##  5 MSFT   2012-01-09  28.0  28.1  27.7  27.7 59706800     22.3
##  6 MSFT   2012-01-10  27.9  28.2  27.8  27.8 60014400     22.4
##  7 MSFT   2012-01-11  27.4  28.0  27.4  27.7 65582400     22.3
##  8 MSFT   2012-01-12  27.9  28.0  27.6  28   49370800     22.5
##  9 MSFT   2012-01-13  27.9  28.2  27.8  28.2 60196100     22.7
## 10 MSFT   2012-01-17  28.4  28.6  28.2  28.3 72395300     22.7
## # … with 2,716 more rows
```

```r
(Tesla <- tq_get("TSLA", get = "stock.prices"))
```

```
## # A tibble: 2,726 × 8
##    symbol date        open  high   low close   volume adjusted
##    <chr>  <date>     <dbl> <dbl> <dbl> <dbl>    <dbl>    <dbl>
##  1 TSLA   2012-01-03  1.93  1.97  1.84  1.87 13921500     1.87
##  2 TSLA   2012-01-04  1.88  1.91  1.83  1.85  9451500     1.85
##  3 TSLA   2012-01-05  1.85  1.86  1.79  1.81 15082500     1.81
##  4 TSLA   2012-01-06  1.81  1.85  1.76  1.79 14794500     1.79
##  5 TSLA   2012-01-09  1.8   1.83  1.74  1.82 13455000     1.82
##  6 TSLA   2012-01-10  1.83  1.85  1.82  1.84 10077000     1.84
##  7 TSLA   2012-01-11  1.84  1.89  1.82  1.88 10084500     1.88
##  8 TSLA   2012-01-12  1.90  1.91  1.85  1.88 10939500     1.88
##  9 TSLA   2012-01-13  1.89  1.9   1.51  1.52 82506000     1.52
## 10 TSLA   2012-01-17  1.77  1.82  1.76  1.77 69774000     1.77
## # … with 2,716 more rows
```

```r
(JNJ <- tq_get("JNJ", get = "stock.prices"))
```

```
## # A tibble: 2,726 × 8
##    symbol date        open  high   low close   volume adjusted
##    <chr>  <date>     <dbl> <dbl> <dbl> <dbl>    <dbl>    <dbl>
##  1 JNJ    2012-01-03  65.6  66    65.2  65.9 16116200     48.7
##  2 JNJ    2012-01-04  65.8  65.9  65.1  65.5  9243100     48.4
##  3 JNJ    2012-01-05  65.3  65.6  64.8  65.4 11886900     48.3
##  4 JNJ    2012-01-06  65.4  65.5  64.6  64.8 15359900     47.9
##  5 JNJ    2012-01-09  65.0  65.1  64.4  64.9  7934600     48.0
##  6 JNJ    2012-01-10  65.1  65.4  65    65.2  8476600     48.2
##  7 JNJ    2012-01-11  65.1  65.5  64.8  65.1  6784600     48.1
##  8 JNJ    2012-01-12  65.3  65.4  64.9  65.2  7402900     48.2
##  9 JNJ    2012-01-13  65.0  65.3  64.4  65.3  8978800     48.2
## 10 JNJ    2012-01-17  65.5  65.7  64.5  65.1  8359900     48.1
## # … with 2,716 more rows
```
…
