…
```r
SoloData
```

```
## # A tibble: 139 × 5
##    name              band                followers band_followers follower_dif…¹
##    <chr>             <chr>               <chr>     <chr>          <chr>         
##  1 Daron Jones       112                 1.28k     783k           −782k         
##  2 Slim              112                 2.14k     783k           −781k         
##  3 Q Parker          112                 3.51k     783k           −780k         
##  4 JC Chasez         *NSYNC              30.8k     1.44M          −1.41M        
##  5 Joey Fatone       *NSYNC              1.13k     1.44M          −1.44M        
##  6 Justin Timberlake *NSYNC              10.3M     1.44M          8.90M         
##  7 Ashton Irwin      5 Seconds of Summer 130k      7.14M          −7.01M        
##  8 Abz Love          5ive                223       19.0k          −18.7k        
##  9 Jeff Timmons      98º                 111       302k           −302k         
## 10 Nick Lachey       98º                 142k      302k           −160k         
## # … with 129 more rows, and abbreviated variable name ¹​follower_difference
```
…
```r
videogames
```

```
## # A tibble: 7,112 × 10
##    Platform Genre Publi…¹ NA_Sa…² EU_Sa…³ JP_Sa…⁴ Other…⁵ Globa…⁶ Rating Criti…⁷
##    <chr>    <chr> <chr>   <chr>   <chr>   <chr>   <chr>   <chr>   <chr>  <chr>  
##  1 Wii      Spor… Ninten… 41,36   28,96   3,77    8,45    82,54   E      Bueno  
##  2 Wii      Raci… Ninten… 15,68   12,8    3,79    3,29    35,57   E      Excele…
##  3 Wii      Spor… Ninten… 15,61   10,95   3,28    2,95    32,78   E      Excele…
##  4 DS       Plat… Ninten… 11,28   9,15    6,5     2,88    29,81   E      Excele…
##  5 Wii      Misc  Ninten… 13,96   9,18    2,93    2,84    28,92   E      Malo   
##  6 Wii      Plat… Ninten… 14,48   6,95    4,7     2,25    28,38   E      Excele…
##  7 DS       Raci… Ninten… 9,71    7,48    4,13    1,9     23,22   E      Excele…
##  8 Wii      Spor… Ninten… 8,92    8,03    3,6     2,15    22,7    E      Excele…
##  9 X360     Misc  Micros… 15,02   4,91    0,24    1,69    21,86   E      Acepta…
## 10 Wii      Spor… Ninten… 9,01    8,49    2,53    1,77    21,79   E      Excele…
## # … with 7,102 more rows, and abbreviated variable names ¹​Publisher, ²​NA_Sales,
## #   ³​EU_Sales, ⁴​JP_Sales, ⁵​Other_Sales, ⁶​Global_Sales, ⁷​Critic_Score_Class
```
…
```r
lifeexpectancy
```

```
## # A tibble: 156 × 5
##    State                Sex      LE    SE Quartile   
##    <chr>                <chr> <dbl> <dbl> <chr>      
##  1 Alabama              Total  73.2 0.067 71.9 - 75.3
##  2 Alaska               Total  76.6 0.176 75.4 - 76.8
##  3 Arizona              Total  76.3 0.055 75.4 - 76.8
##  4 Arkansas             Total  73.8 0.086 71.9 - 75.3
##  5 California           Total  79   0.022 78.1 - 80.7
##  6 Colorado             Total  78.3 0.058 78.1 - 80.7
##  7 Connecticut          Total  78.4 0.073 78.1 - 80.7
##  8 Delaware             Total  76.7 0.147 75.4 - 76.8
##  9 District of Columbia Total  75.3 0.179 71.9 - 75.3
## 10 Florida              Total  77.5 0.032 76.9 - 78.0
## # … with 146 more rows
```
…
```r
coviddata
```

```
## # A tibble: 215,400 × 67
##    iso_code continent locat…¹ date       total…² new_c…³ new_c…⁴ total…⁵ new_d…⁶
##    <chr>    <chr>     <chr>   <date>       <dbl>   <dbl>   <dbl>   <dbl>   <dbl>
##  1 AFG      Asia      Afghan… 2020-02-24       5       5  NA          NA      NA
##  2 AFG      Asia      Afghan… 2020-02-25       5       0  NA          NA      NA
##  3 AFG      Asia      Afghan… 2020-02-26       5       0  NA          NA      NA
##  4 AFG      Asia      Afghan… 2020-02-27       5       0  NA          NA      NA
##  5 AFG      Asia      Afghan… 2020-02-28       5       0  NA          NA      NA
##  6 AFG      Asia      Afghan… 2020-02-29       5       0   0.714      NA      NA
##  7 AFG      Asia      Afghan… 2020-03-01       5       0   0.714      NA      NA
##  8 AFG      Asia      Afghan… 2020-03-02       5       0   0          NA      NA
##  9 AFG      Asia      Afghan… 2020-03-03       5       0   0          NA      NA
## 10 AFG      Asia      Afghan… 2020-03-04       5       0   0          NA      NA
## # … with 215,390 more rows, 58 more variables: new_deaths_smoothed <dbl>,
## #   total_cases_per_million <dbl>, new_cases_per_million <dbl>,
## #   new_cases_smoothed_per_million <dbl>, total_deaths_per_million <dbl>,
## #   new_deaths_per_million <dbl>, new_deaths_smoothed_per_million <dbl>,
## #   reproduction_rate <dbl>, icu_patients <dbl>,
## #   icu_patients_per_million <dbl>, hosp_patients <dbl>,
## #   hosp_patients_per_million <dbl>, weekly_icu_admissions <dbl>, …
```
…
