…
#install.packages("nycflights13")
library(nycflights13)
```



```r
flights
```

```
## # A tibble: 336,776 × 19
##     year month   day dep_time sched_de…¹ dep_d…² arr_t…³ sched…⁴ arr_d…⁵ carrier
##    <int> <int> <int>    <int>      <int>   <dbl>   <int>   <int>   <dbl> <chr>  
##  1  2013     1     1      517        515       2     830     819      11 UA     
##  2  2013     1     1      533        529       4     850     830      20 UA     
##  3  2013     1     1      542        540       2     923     850      33 AA     
##  4  2013     1     1      544        545      -1    1004    1022     -18 B6     
##  5  2013     1     1      554        600      -6     812     837     -25 DL     
##  6  2013     1     1      554        558      -4     740     728      12 UA     
##  7  2013     1     1      555        600      -5     913     854      19 B6     
##  8  2013     1     1      557        600      -3     709     723     -14 EV     
##  9  2013     1     1      557        600      -3     838     846      -8 B6     
## 10  2013     1     1      558        600      -2     753     745       8 AA     
## # … with 336,766 more rows, 9 more variables: flight <int>, tailnum <chr>,
## #   origin <chr>, dest <chr>, air_time <dbl>, distance <dbl>, hour <dbl>,
## #   minute <dbl>, time_hour <dttm>, and abbreviated variable names
## #   ¹​sched_dep_time, ²​dep_delay, ³​arr_time, ⁴​sched_arr_time, ⁵​arr_delay
```
SECTION 1 

If I am leaving before noon, which two airlines do you recommend at each airport (JFK, LGA, EWR) that will have the lowest delay time at the 75th percentile?

Only JFK data 

```r
jfkdata <- flights %>%
  filter(origin == "JFK")

jfkdata
```

```
## # A tibble: 111,279 × 19
##     year month   day dep_time sched_de…¹ dep_d…² arr_t…³ sched…⁴ arr_d…⁵ carrier
##    <int> <int> <int>    <int>      <int>   <dbl>   <int>   <int>   <dbl> <chr>  
##  1  2013     1     1      542        540       2     923     850      33 AA     
##  2  2013     1     1      544        545      -1    1004    1022     -18 B6     
##  3  2013     1     1      557        600      -3     838     846      -8 B6     
##  4  2013     1     1      558        600      -2     849     851      -2 B6     
##  5  2013     1     1      558        600      -2     853     856      -3 B6     
##  6  2013     1     1      558        600      -2     924     917       7 UA     
##  7  2013     1     1      559        559       0     702     706      -4 B6     
##  8  2013     1     1      606        610      -4     837     845      -8 DL     
##  9  2013     1     1      611        600      11     945     931      14 UA     
## 10  2013     1     1      613        610       3     925     921       4 B6     
## # … with 111,269 more rows, 9 more variables: flight <int>, tailnum <chr>,
## #   origin <chr>, dest <chr>, air_time <dbl>, distance <dbl>, hour <dbl>,
## #   minute <dbl>, time_hour <dttm>, and abbreviated variable names
## #   ¹​sched_dep_time, ²​dep_delay, ³​arr_time, ⁴​sched_arr_time, ⁵​arr_delay
```
…
The airlines with the two lowest average departure delays are US (US Airways Inc.) and DL (Delta Air Lines Inc.)



Only LGA data 

```r
lgadata <- flights %>%
  filter(origin == "LGA")

lgadata
```

```
## # A tibble: 104,662 × 19
##     year month   day dep_time sched_de…¹ dep_d…² arr_t…³ sched…⁴ arr_d…⁵ carrier
##    <int> <int> <int>    <int>      <int>   <dbl>   <int>   <int>   <dbl> <chr>  
##  1  2013     1     1      533        529       4     850     830      20 UA     
##  2  2013     1     1      554        600      -6     812     837     -25 DL     
##  3  2013     1     1      557        600      -3     709     723     -14 EV     
##  4  2013     1     1      558        600      -2     753     745       8 AA     
##  5  2013     1     1      559        600      -1     941     910      31 AA     
##  6  2013     1     1      600        600       0     851     858      -7 B6     
##  7  2013     1     1      600        600       0     837     825      12 MQ     
##  8  2013     1     1      602        610      -8     812     820      -8 DL     
##  9  2013     1     1      602        605      -3     821     805      16 MQ     
## 10  2013     1     1      623        610      13     920     915       5 AA     
## # … with 104,652 more rows, 9 more variables: flight <int>, tailnum <chr>,
## #   origin <chr>, dest <chr>, air_time <dbl>, distance <dbl>, hour <dbl>,
## #   minute <dbl>, time_hour <dttm>, and abbreviated variable names
## #   ¹​sched_dep_time, ²​dep_delay, ³​arr_time, ⁴​sched_arr_time, ⁵​arr_delay
```
…
The airlines with the two lowest average departure delays are WN (Southwest Airlines Co.) and US (Us Airways Inc.)


Only EWR data 

```r
ewrdata <- flights %>%
  filter(origin == "EWR")

ewrdata
```

```
## # A tibble: 120,835 × 19
##     year month   day dep_time sched_de…¹ dep_d…² arr_t…³ sched…⁴ arr_d…⁵ carrier
##    <int> <int> <int>    <int>      <int>   <dbl>   <int>   <int>   <dbl> <chr>  
##  1  2013     1     1      517        515       2     830     819      11 UA     
##  2  2013     1     1      554        558      -4     740     728      12 UA     
##  3  2013     1     1      555        600      -5     913     854      19 B6     
##  4  2013     1     1      558        600      -2     923     937     -14 UA     
##  5  2013     1     1      559        600      -1     854     902      -8 UA     
##  6  2013     1     1      601        600       1     844     850      -6 B6     
##  7  2013     1     1      606        610      -4     858     910     -12 AA     
##  8  2013     1     1      607        607       0     858     915     -17 UA     
##  9  2013     1     1      608        600       8     807     735      32 MQ     
## 10  2013     1     1      615        615       0     833     842      -9 DL     
## # … with 120,825 more rows, 9 more variables: flight <int>, tailnum <chr>,
## #   origin <chr>, dest <chr>, air_time <dbl>, distance <dbl>, hour <dbl>,
## #   minute <dbl>, time_hour <dttm>, and abbreviated variable names
## #   ¹​sched_dep_time, ²​dep_delay, ³​arr_time, ⁴​sched_arr_time, ⁵​arr_delay
```
…
